<?xml version="1.0" encoding="utf-8"?>
<!-- Generator: Adobe Illustrator 26.2.1, SVG Export Plug-In . SVG Version: 6.00 Build 0)  -->
<svg version="1.1" id="Calque_1" xmlns="http://www.w3.org/2000/svg" xmlns:xlink="http://www.w3.org/1999/xlink" x="0px" y="0px"
	 viewBox="0 0 1800 1800" style="enable-background:new 0 0 1800 1800;" xml:space="preserve">
<style type="text/css">
	.st0{fill:#2C4495;}
	.st1{fill:url(#SVGID_1_);}
	.st2{fill:#1D1C3B;}
</style>
<g>
	<g>
		<g id="Jw2TBj_00000034803234761263056090000007319775998152838022_">
			<g>
				<path class="st0" d="M1446.5,566.4c-1.7,1.3-4.5,2.3-4.8,5.7c0,0.6-0.6,1.2-1,1.6c-2.3,1.8-5,1.4-7.6,0.9
					c-2.7-0.5-5.4-1.1-8.1-1.7c-0.9-0.2-2.1-0.6-2.4-1.3c-1.6-3-4.4-4.5-6.8-6.6c-2.3-2-4.4-4.3-3.9-7.8c0.1-1,0.2-2.4-0.3-2.9
					c-1-1.1-2.5-1.3-4.1-0.5c-6,3-12.3,4.4-18.9,4c-1.1-0.1-2.3,0-3.3,0.5c-4.3,2.2-8.9,2.1-13.5,2.2c-1.5,0-2.5-0.5-3.3-1.8
					c-1.2-2-1.9-2-3.7-0.5c-3.2,2.8-6.2,5.9-9.5,8.4c-4.1,3.1-5.5,7.6-7,12.1c-0.3,1-0.8,2.2-1.5,2.8c-4.7,3.5-6.5,9.8-11.9,12.7
					c-0.2,0.1-0.3,0.3-0.4,0.5c-1.8,3.3-3.9,6.5-5.4,10c-2,4.5-2.7,9.3-0.4,14c0.3,0.7,0.5,1.4,0.7,2.1c0.6,2.1,0.2,4-1.6,5.4
					c-1.6,1.2-2.3,3-1.7,4.7c1.9,5.9,2.7,12.6,9.8,15.1c2.7,1,4,2.9,4,5.8c0.1,3.4,1.4,6.1,4.3,8.1c1.3,0.9,2.4,2.2,3.6,3.3
					c2.4,2.2,5.1,4,8.6,3.5c1.9-0.3,3.8-1,5.8-1.3c7-1.4,14.2-2.1,21.1-4.5c1.9-0.7,3.9-0.8,5.9-1.1c0.9-0.1,2-0.2,2.8,0.2
					c1.4,0.6,2.8,1.5,4,2.5c2.8,2.4,6.1,3.4,9.7,3c1.3-0.1,2.7-0.3,2.9,1.5c0.2,2.3,1.6,3.5,3.6,4.3c2.1,0.8,2.2,1.7,1.1,3.6
					c-0.7,1.2-1.4,2.3-2.1,3.4c-2.4,4-3,7.7-0.1,12c4.9,7.2,8.6,14.9,10.7,23.6c1.4,6,1,10.7-1.8,15.8c-4,7.5-1.5,14.7,1.1,21.8
					c0.4,1.2,0.7,2.6,1.5,3.4c3.5,3.5,4,7.8,4.3,12.3c0.3,4.6,1,9.1,4.3,12.8c3.5,3.9,6.1,8.6,6,13.8c-0.1,3.5,2,4.7,3.7,6.7
					c1.3,1.5,2.5,1.9,4.4,1.1c1.2-0.5,2.8-0.4,4.2-0.5c5-0.3,9.9-0.5,14.9-0.8c2-0.1,3.1-1.3,4.1-3c5.2-9.7,10.5-19.4,15.7-29
					c1.7-3.2,3.8-6.2,4.2-10c0.3-3,0.9-5.9,1.5-8.8c0.3-1.2,0.9-2.3,1.6-3.3c3.1-4.2,7.2-7.4,12-9.4c4.3-1.9,5.5-4.7,5.6-9.4
					c0.1-7.1-0.8-13.5-5.4-19.1c-1-1.2-0.7-2.2,0-3.4c2.4-3.8,4.7-7.6,6.8-11.5c2.6-4.9,4.9-10,7.4-14.9c0.4-0.9,1.1-1.8,1.9-2.3
					c3.7-2.5,7.6-4.7,11.1-7.3c3.7-2.7,5.7-6.6,6.4-11.1c0.7-4.3,0.5-8.8,4.1-12.6c-4.4,0-8.2,0-12,0c-1.9,0-3.7,0-5.6,0.1
					c-0.5,0-1.1,0.4-1.6,0.7c-3.3,2.3-5.5,1.8-7.3-1.8c-0.7-1.3-1.1-2.8-1.5-4.2c-0.9-2.6-1.5-5.3-2.5-7.8
					c-4.4-11-11.3-20.6-17.6-30.4c-4.3-6.7-6.9-13.9-9-21.4c-0.1-0.5,0-1.3,0.4-1.7c1-1.1,2.1-2.1,3-3c1.7,4.1,3.8,8.6,5.5,13.2
					c1.3,3.5,3.3,6,6.7,7.5c4.6,2,6.9,6,8.6,10.6c0.9,2.4,2.6,4.6,3.9,6.9c2.2,3.9,5.4,7.6,6.4,11.8c1.3,5.1,3.7,7.8,8.7,8.6
					c0.3,0,0.6,0.2,0.9,0.2c2.2,0.3,4.2,0.2,6.2-1.2c3-2.1,6.1-4,9.2-5.9c2.1-1.3,4.1-2.5,5.4-4.8c0.9-1.5,2.4-2.6,3.9-3.6
					c2.9-2.1,5.8-4.2,8.7-6.2c1.4-0.9,2.9-1.8,4.4-2.5c1.4-0.7,1.9-1.7,1.1-3.1c-0.6-1-1.5-1.8-2.3-2.7c-1.9-2-3.9-3.9-5.5-6.1
					c-1.6-2.2-3.6-3.1-6.1-2.5c-2.1,0.4-4.2,0.9-6.3,1.4c-2.5,0.6-5,1.3-6.9,1.9c-1.2-1.5-2.1-2.8-3.2-3.9c-1.9-2-4-3.8-6-5.7
					c-2.6-2.3-4.2-4.9-3.6-8.6c0.2-0.9-0.2-2-0.4-3.3c0.6,0,1.3-0.2,1.9,0c4.2,1.6,8.7,2.7,12.6,4.9c5,2.7,10,5.4,15.6,7.1
					c10,3,19.8,6,30.4,4.9c0.8-0.1,2,0.5,2.7,1.2c2.8,2.6,5.4,5.3,8.1,8c0.5,0.5,1.2,1,1.8,1.1c1.9,0.3,3.8,0.3,5.7,0.4
					c0-0.2,0.1-0.4,0-0.6c-1.9-9.9-3.5-19.9-5.9-29.7c-2.4-9.6-5.3-19-8.7-28.3c-13.5-36.7-34-69-61-97.2c-1.2-1.2-5.1-1.4-6.8-0.7
					c-4.7,1.9-9.5,3.5-14.8,2.4c-1.3-0.3-2.8,0.2-4.1,0.7c-1.4,0.5-2.8,1.4-4.1,2.2c-1.6,1-3.2,0.9-4.8-0.2c0.3-0.6,0.6-1.2,0.9-1.9
					c-2.3-0.7-3.7-0.3-4.8,1.9c-1.2,2.5-3.5,4.1-6.4,4.1c-1.7,0-2.3,0.8-2.7,2.3c-0.9,3.1-3.9,4.8-6.7,3.5c-4.1-1.9-6.8-5.3-9.5-8.8
					c-0.1-0.2,0-0.5,0-1.3c1.7,0.2,3.2,0.4,4.7,0.7c2.5,0.4,5,1,7.5,1.1c1.4,0,2.9-0.9,4.3-1.3c0-0.3-0.1-0.6-0.1-0.9
					c-1.2-0.4-2.3-1-3.5-1.3c-5.5-1.7-11.3-2.9-16.6-5c-7-2.8-14-3-21.2-1.6c-7.9,1.5-15.5,3.5-20.7,10.4c-1.5,2-4.2,3.1-5.9,5
					c-3.4,3.8-6.6,7.7-12,8.6c-0.5,0.1-0.9,0.4-1.4,0.6c-2.4,0.7-3.2,2.2-2.5,4.6c0.3,1.1,0.4,2.3,0.6,3.5c0.6,3.5,0.6,3.5,4,3.4
					c2,0,4,0.1,6,0.1c0.7,0,1.5,0.1,1.9-0.3c2.3-2.1,3.2-0.3,4.1,1.4c0.5,1,0.9,2,1.4,3c0.3,0.6,0.7,1.2,1.3,1.4
					c1.4,0.7,6.4-0.7,7.2-2.1c1.5-2.5,3-5.1,4.1-7.9c1.9-4.9,2.3-10.3,6.4-14.2c0.1-0.1,0.1-0.3,0.2-0.4c2.4-1.8,4.7-3.8,7.2-5.5
					c0.6-0.4,1.8-0.3,2.4,0.2c0.4,0.2,0.4,1.6,0.1,2.2c-0.8,1.7-1.7,3.5-2.8,5c-2.4,3.3-1.6,6.7,2.3,7.8c2.7,0.8,5.7,0.8,8.5,0.8
					c1.6,0,3.3-0.7,4.8-1c1.6,5.9-0.8,10.2-4.6,14.3c-0.4-1.2-0.6-2.2-1-3.1c-0.7-1.7-1.3-3.6-3.8-3.4c-2.4,0.2-6.3,3.3-6,5
					c0.3,1.5-0.6,1.9-1.4,2.6c-1.2,1-2.5,1.9-3.7,2.9c-0.5,0.5-1.3,1.2-1.3,1.7c0.1,2.8-1.8,2.5-3.5,2.7c-2.9,0.2-5.7,0.7-8.6,1
					c-2.6,0.3-5.3,0.8-7.9,0.7c-2.6-0.1-4-1.9-4.6-4.1c-0.6-2.2-1.5-4.4-2.2-6.5c-0.3,0-0.6-0.1-0.9-0.1c-0.6,1-1.4,1.9-1.8,3
					c-0.5,1.4-0.5,2.9-0.8,4.4c-0.6,2.8-2.4,4.7-5.2,5c-5,0.5-8.3,2.6-10.3,7.4c-2.5,5.9-8.1,7.4-13.8,8.1c-1.8,0.2-3.6,0.3-5.3,0.8
					c-0.7,0.2-1.2,1.1-1.5,1.9c-0.1,0.2,0.9,0.9,1.5,1.3c3,1.9,6,3.7,8.5,5.3c-0.5,2.7-1.1,4.6-1.1,6.6c0,1.7-0.7,2.3-2.2,2.3
					c-3.9,0-7.7,0.2-11.6,0c-4.7-0.2-8.3,2.2-9.5,6.9c-1.1,4.1-0.6,8.3,0.4,12.3c0.2,0.7,1.4,1.5,2,1.5c5.1-0.1,10.2-0.3,15.3-0.7
					c3.5-0.3,6.7-2,8.5-4.8c2.5-3.8,4.8-7.7,7.8-11.2c0-0.1,0-0.1,0.1-0.2c0.7-1.6,1.9-2.6,3.6-2.6c2.2,0,4.5,0.3,6.9,0.4
					c1.3-2.4,1.4-3.4,0.5-4.3c5-2,8.4-1.1,11.2,3.2c0.2,0.3,0.4,0.7,0.7,0.9c3.7,2.6,6.3,6,8.4,9.9c0.3,0.6,1,1.1,1.6,1.5
					c2.8,1.8,5.7,1.5,8.6,0.4c0.4-0.1,0.8-1.4,0.5-1.8c-1.4-2.1-2.8-4.4-5.4-5c-4.7-1.2-7-5.1-10-8.2c-1.6-1.6-0.3-3.5,0.7-4.9
					c0.4-0.6,2.1-0.9,2.8-0.6c1.4,0.6,3,1.6,3.9,2.8c2.3,3.1,5.1,5.1,9.1,5c0.2,0,0.5,0,0.7,0.1c1.1,0.7,2.3,1.2,3.1,2.1
					c1.5,1.8,2.6,3.8,4,5.6c0.9,1.2,1.7,2.1,1.1,3.8c-0.2,0.4,0.6,1.6,1.2,1.9c1.6,0.8,2.5,1.9,2.9,3.6c0.5,1.8,2.8,3.1,4.5,2.4
					c1.9-0.8,0.7-2.3,0.6-3.5c0-0.4-0.2-0.7-0.3-1.1c-1-3.5,1-6.3,4.7-6.8c2.4-0.3,4.7-0.7,7-1.1c1.9-0.3,3.9-0.5,6.2-0.9
					c-2.1,3.5-3.9,6.7-8.6,4.5c2.1,6.3,3,7.3,8.7,12c4.2,3.4,8,3.9,12.9,1.2c1.9-1.1,4.8-0.4,7.3-0.4c0.2,0,0.6,0.7,0.6,1.1
					c0.8,5.4,3.3,11.1-2.2,15.6c-0.2,0.1-0.2,0.4-0.4,0.5c-1.3,0.8-2.6,2.3-3.8,2.2c-4.1-0.3-8.1-1.3-12.2-1.9
					c-2.4-0.4-5.2-1.3-7.2-0.5c-2.2,0.9-3.8,0.7-5.7,0.1c-2.7-0.9-5.3-2-7.8-3.2C1449,568.9,1448,567.7,1446.5,566.4z M1118.2,457.2
					c-0.3,0.4-0.5,0.9-0.9,1.3c-8.8,10-16.9,20.6-24.2,31.7c-22.8,34.9-37.2,73-43.2,114.2c-0.7,4.7,0.6,8.5,3.9,11.7
					c4.6,4.5,10.4,6.8,16.1,9.4c2,1,4.4,1.3,6.7,1.4c4.1,0.3,7.9,1.1,10.9,4.3c2.8,3,6.2,5.1,10.5,5.2c1.2,0,2.4,0.3,3.5,0.8
					c0.9,0.4,1.7,1,2.3,1.8c2.9,3.6,5.2,7.7,8.5,10.7c3.7,3.4,8,6.8,13.7,3.1c0.7-0.4,2.2-0.2,3,0.3c4.1,2.5,6,8,4.6,12.8
					c-1.3,4.5-3.3,8.8-6.4,12.4c-3.2,3.7-4.3,8.1-5,12.6c-0.2,1.1,0.1,2.4,0.5,3.4c0.9,2.1,1.2,4,0.5,6.2c-1,3.3-0.3,6.3,2.3,8.8
					c1.1,1.1,2.1,2.4,2.6,3.8c1.8,5,5,8.7,9.6,11.3c2.9,1.7,4.5,4.3,4.5,7.9c0,4,1.7,7.1,5.9,8.6c2.3,0.8,4.6,2.1,6.6,3.5
					c4.2,3,6.8,7.1,7.3,12.3c0.3,3.2,0.2,6.4,0,9.6c-0.6,11.1-0.6,22.1,1.4,33.1c0.5,2.8,0.6,5.8,0.8,8.7c0.3,5.2,0.6,10.4,0.9,15.5
					c0.1,1.9,1,3.1,2.8,3.9c0.9,0.4,2,1.1,2.3,1.9c1.6,4.4,2.6,9,1.4,13.8c-0.2,0.9,0.3,2.1,0.8,2.9c1.1,1.9,2.9,3.5,3.6,5.5
					c2.2,5.9,6.1,9.9,11.9,12.1c0.4,0.2,0.9,0.3,1.2,0.6c1.4,1.3,3.4,2.3,4.2,3.9c1.5,3.2,4.1,3.8,7,4.1c1.9,0.2,2.6-0.6,2-2.3
					c-0.7-2.2-1.6-4.3-2.6-6.4c-0.3-0.7-1.3-1.5-1.9-1.5c-1.9,0-2.3-0.9-2.6-2.6c-0.8-5.2,0.1-10.5-1.7-15.6
					c-0.5-1.4-0.7-3.1-0.8-4.6c-0.1-1-0.1-2.3,0.4-3c1.9-2.7,1.9-5.6,1.1-8.5c-0.6-2.2-0.1-4.3,1.5-5.7c3.4-3,6.8-5.9,10.4-8.7
					c1.9-1.5,2.2-1.9,0.9-3.9c-0.8-1.3-1.8-2.6-2.4-4c-0.6-1.3-0.8-2.8-1.3-4.7c1.1,0.4,1.5,0.5,1.9,0.6c4,1.2,7.8,1.9,11-1.8
					c1.9-2.1,4.3-3.7,6.2-5.8c0.9-1,1.5-2.5,2-3.8c0.7-1.9,1.1-3.8,1.6-5.8c0.6-2.5,1.5-5,1.8-7.5c0.3-3,1.1-5.5,3.5-7.4
					c3.2-2.4,6.3-5,9.7-7.1c1.6-0.9,3.8-0.8,5.7-1.2c0.7-0.1,1.5-0.2,1.9-0.7c3-4.3,5.7-8.8,6.1-14.2c0.4-5.5,0.6-11,0.8-16.5
					c0.1-2,0.6-3.4,2.5-4.3c0.8-0.4,1.6-1.1,2.2-1.9c5.6-6.7,8.2-14.4,6.9-23.2c-0.3-1.8-1.3-2.5-2.8-3c-5.5-2-11-4-16.4-6.3
					c-2-0.9-3.6-1.1-5.6-0.1c-1.1,0.6-2.6,0.5-3.9,0.7c-1.4,0.1-2.2-0.4-2.2-2c0-0.5-0.4-1.2-0.9-1.5c-0.9-0.7-2-1-2.8-1.7
					c-1.4-1.2-2.7-1-4-0.2c-1.5,0.9-2.9,1.9-4.4,2.7c-0.5,0.3-1.6,0.1-2-0.3c-0.3-0.3-0.1-1.5,0.3-2c1.1-1.4,0.9-2.8-0.9-3
					c-1.6-0.1-3.5,0.4-5,1.1c-1.7,0.8-2.8,0.6-3.9-1.2c1.2-0.6,2.3-1.1,3.4-1.7c3.6-1.9,4.3-4.2,2.1-7.6c-1.5-2.4-3.2-4.7-4.7-7
					c-1.5-2.3-3.5-3.6-6.2-4.2c-8.4-2-15.8-6.2-22.3-11.9c-3.2-2.8-6.8-4.5-11.1-4.4c-5.3,0.1-10.2-0.8-13.9-5.1
					c-0.3-0.4-1.7-0.6-1.8-0.3c-1.9,2.6-5.4,4.7-3.1,8.8c0,0-0.2,0.2-0.3,0.4c-0.5-0.2-1.1-0.4-1.6-0.6c-0.8-0.3-1.7-0.7-2.4-1.1
					c-2.8-1.4-2.9-1.8-1-4.2c0.3-0.4,0.7-1.2,0.5-1.5c-0.3-0.5-1-1-1.5-1c-0.9,0.1-1.8,0.5-2.6,1c-1.1,0.6-2.1,1.2-3.2,1.8
					c-0.5,0.3-1.3,0.6-1.6,1.1c-2.2,3.9-5.5,4.5-9.5,3.1c-0.7-0.2-1.5-0.3-2.1-0.6c-2.4-1.2-4.5-0.9-6.7,0.7c-0.7,0.5-2,0.8-2.6,0.4
					c-2.2-1.2-4.2-2.8-4.4-5.5c-0.2-3.8-0.3-7.6-0.3-11.3c0-3.7-0.3-4.2-3.9-4.9c-2.7-0.5-5.4-0.9-8.1-1.6c-2.6-0.7-3.1-1.8-2.4-4.3
					c0.9-2.8,1.8-5.6,2.8-8.5c0.7-2,0-4.5-1.5-5.1c-1.5-0.6-3.9,0.6-4.8,2.4c-0.6,1.4-1.2,2.9-1.8,4.3c-1.1,2.8-3.3,4.3-6.1,4.5
					c-4.4,0.5-7.8-1.8-11.1-4.2c-0.4-0.3-0.6-0.9-0.8-1.3c-1.3-4-2.5-7.9-1.9-12.2c0.1-0.8,0-1.6-0.3-2.4c-1.6-4.6-1.3-5.6,2.3-8.9
					c3-2.9,6.1-5.7,8.7-8.9c2.6-3.1,6.2-3.2,9.5-4.3c0.2-0.1,0.6,0.1,0.8,0.3c1.7,1.8,3.4,3.7,5.5,5.9c1.6-1.8,3.5-3.8,5.4-6
					c2.6-3.1,6.4-3.2,9,0c0.8,0.9,1.3,2,2.1,2.9c0.5,0.6,1.3,1.1,2.4,2c0-2.3,0-3.9,0-5.8c2,1.6,3.1,3,2.7,5.4
					c-0.2,1,0.2,2.2,0.5,3.3c0.6,2.2,1.2,4.4,1.9,6.6c0.3,0.8,1,1.9,1.5,1.9c1.1,0,2.6-0.2,3.3-1c1.7-1.7,1.7-7.3,0.5-9.4
					c-1.9-3.1-1.4-9.8,1.4-12c3.8-3,7.9-5.8,12.2-8.1c5.2-2.7,7.6-6.6,7.3-12.3c-0.1-2.3,2.5-4.6,4.8-4.8c1.4-0.1,2.9-0.4,4-1.2
					c2-1.4,3.9-3,5.5-4.9c2.7-3.2,5.3-6,9.6-7.4c3.2-1.1,5.7-4.2,8.7-6.1c2.7-1.7,5.6-3.2,8.5-4.6c0.5-0.3,1.4,0,2,0.3
					c0.8,0.4,1.4,1.2,2.2,1.8c-1.4,2.1-4.9,2.3-5.3,5.8c2.9-0.2,5.5-0.4,7.9-2.1c2.1-1.5,4.4-3,6.6-4.5c-1.1-1.4-2.4-3.1-4.9-3.2
					c-1.4-0.1-1.9-0.9-1.9-2.2c0-0.8,0-1.6,0-2.9c-4.6,0.4-9,0.7-13.4,1c-0.1-0.3-0.3-0.5-0.4-0.8c1-0.9,1.9-2.2,3.1-2.8
					c3-1.3,6.1-2.3,9.2-3.4c0.8-0.3,1.5-0.5,2.3-0.8c2.2-0.9,4.3-2.2,6.5-2.6c4.2-0.8,8.6-1,12.8-1.8c4.5-0.9,8.1-3.7,11.6-6.5
					c-2.8-2-5.4-3.9-8-5.9c-0.4-0.3-0.7-1-0.7-1.6c-0.3-3.5-0.5-7.1-0.7-10.6c-0.1-1.4,0-2.8,0-4.5c-0.8,0.3-1.2,0.4-1.4,0.5
					c-3.6,3-7.9,2.8-12.1,2.7c-1.3,0-2.3-0.4-2.4-2c-0.5-4.4-0.5-4.4-4.7-5.1c-0.4-0.1-0.7-0.1-1.1-0.2c-6.4-1.2-11,0.8-14.5,6.4
					c-0.7,1.1-1.3,2.2-2.2,3.1c-6.2,6.2-10.9,13.5-15.6,20.9c-0.8,1.3-2.4,2.4-3.9,3c-2.4,1-3,0.6-2.8-2c0.3-3.2,0-6.5,2.5-9.4
					c-1.5-0.2-2.7,0.1-3.9,0.2c-0.4,0-0.9-0.1-1.2-0.3c-3.6-1.9-7.3-3.7-10.9-5.7c-1.1-0.6-1.9-1.2-3.3-0.5
					c-0.4,0.2-1.5-0.2-1.8-0.6c-2.5-3.2-2.2-9,1.1-11.4c5.9-4.4,11.5-9.1,19.5-9.6c2.5-0.2,4.9-2.2,7.3-3.5c0.3-0.2,0.5-0.9,0.4-1.4
					c-0.1-1.3,0.6-1.6,1.7-1.7c1.3-0.1,2.5-0.2,3.8-0.4c4.1-0.6,8.2-1.1,12.3-2c1.4-0.3,2.8-1.2,3.8-2.3c1.4-1.5,2.4-3.4,3.9-5.5
					c-4,0.3-7.9,0.6-11.9,0.9c-0.3,0-0.6,0.3-0.7,0.5c-1.3,1.8-2.3,0.9-3.3-0.4c-1.9-2.4-3.8-4.8-5.7-7.1c-1.6-1.9-1.5-2.7,0.8-3.6
					c2.8-1.2,5.8-2.1,8.6-3.1c-4.5-0.9-9.2-2-14-2.9c-0.6-0.1-1.7,0.8-2,1.4c-1.3,3.4-2.5,6.8-3.5,10.3c-1.3,4.5-4.5,7.5-8.4,9
					c-5.8,2.2-12,3.5-18.1,4.6c-4.4,0.8-8.9,0.5-13.3,1.1c-2.2,0.3-4.1,0.2-5.9-1C1119.6,457.9,1119,457.7,1118.2,457.2z
					 M1243.1,423.5c2,1.6,3.7,2.7,6.1,3.1c8.4,1.4,15.9,4.1,19.4,13c1.5,3.6,1.1,6.7-1.1,9.6c-1.5,1.9-3.4,3.6-4.8,5.5
					c-1.1,1.5-2.1,3.3-2.3,5.1c-0.3,2.4-0.1,4.9,0.4,7.3c0.7,3.8,3.2,6.7,6.6,8.2c4.1,1.7,14-5.3,14.3-9.8c0-0.1,0-0.1,0-0.2
					c-0.3-1.8,0.8-2.6,2.3-3c1-0.3,2-0.5,3.1-0.6c5.7-0.4,10.4-2.5,15.1-5.9c3.2-2.4,7.4-3.7,11.3-4.9c5.8-1.8,11.8-3,17.7-4.5
					c-1.5-1.8-2.9-3.9-3.7-6.1c0.3-0.2,0.6-0.4,0.9-0.6c1.3,1.5,2.7,2.9,4.2,4.6c2.1-0.3,4.6-0.7,7.2-1c-2.1-1.7-4.4-2.8-6.5-4.2
					c-0.8-0.5-1.3-1.4-1.9-2.2c0.9-0.5,1.7-1.1,2.6-1.5c1.7-0.7,3.4-1.2,5-1.9c1.6-0.7,3.1-1.9,4.7-2.5c2.8-1,4.4-2.9,5-5.7
					c0.3-1.3,0.5-2.6,0.8-3.9c0.1-0.4,0.2-0.9,0.5-1.1c2.7-1.5,5.1-3.6,8.5-3.4c2.3,0.1,4.6-0.2,6.9-0.4c0.4,0,0.8-0.2,1.3-0.3
					c-0.9-0.6-1.7-0.8-2.6-1c-7.2-1.4-14.4-2.7-21.7-4.1c-1.1-0.2-2.2-0.4-3.3-0.3c-6.6,0.9-13.3,1.8-19.9,2.8
					c-0.9,0.1-2.1,0.4-2.6,1.1c-1.4,1.9-3.4,2.1-5.4,2c-5.5-0.4-11-0.9-16.4-1.4c-3.7-0.3-7.5-1.5-11.1-0.9
					c-5.2,0.9-10.2,3-15.2,4.7c-1.1,0.3-2,1.1-3.1,1.2c-7.1,1.1-13.9,3.7-21.3,2.6C1244,423.2,1243.8,423.3,1243.1,423.5z
					 M1194.6,431c0.6,0.2,0.9,0.3,1.2,0.3c2,0.1,2.6,1.6,2.7,3.2c0,1.8-1.6,1.7-2.8,1.8c-3,0.3-5.9,0.5-8.9,0.8
					c-2.4,0.2-3.5,1.6-3.5,4c0,2.2,1.8,2.4,3.3,2.6c3.5,0.4,6.9,0.7,10.4,1.1c8.1,0.9,16.2,1.7,22.2,8.2c0.7,0.8,1.1,1.8,1.7,2.6
					c-0.9,0.5-1.7,1.3-2.7,1.5c-2.2,0.6-4.4,0.7-6.5,1.3c-2.4,0.7-3.9,2.6-4.2,5c-0.3,2.2,1.3,3.5,3,4.5c2.1,1.2,6.8,0.8,8.6-0.8
					c0.4-0.3,0.9-1.1,0.8-1.4c-0.9-2.2,0.8-2.7,2.1-3.2c3.5-1.2,7.1-2.3,10.7-3.1c2.3-0.5,3.4-1.7,3.7-4c-0.3,0-0.6-0.1-0.9-0.1
					c-4.3,0-5.7-1.5-5.1-5.8c0.2-1.3,0.6-2.6,0.8-3.9c0.2-1.3,0-2.1-1.6-2.5c-4.4-1.2-8.7-2.9-13.1-4.2c-2.8-0.8-5.6-1.3-8.5-1.9
					c-1.2-0.2-2.3-0.3-2.2-1.9c0.1-1.4,0.6-2.2,2.3-2.3c1.9-0.1,3.9-0.7,5.7-1.4c1.1-0.4,1.8-1.5,1-2.8c-1.4,0.3-2.6,0.6-3.8,0.7
					c-2.6,0.3-5.1-0.4-7.5-1.5C1199.6,426.2,1196.5,427.3,1194.6,431z M1536.3,724.2c-0.7,2.7-0.9,2.5-2.8,4.3
					c-2.5,2.3-4.7,4.8-6.9,7.4c-0.9,1.1-1.7,1.7-3.2,1.6c-0.5,0-1.4,0.2-1.6,0.6c-1.7,2.7-4.6,5-2.4,9.1c0.7,1.3,0.2,3.7-0.5,5.3
					c-0.7,1.8-2.3,3.2-3.3,5c-2.8,5-2.7,5.1,1.3,9.1c0.3,0.3,0.6,0.5,0.8,0.8c1.7,3.4,5.3,2,7.9,3.1c0.2,0.1,0.7-0.3,0.8-0.6
					c2.4-4.9,5-9.7,7-14.8c1.5-3.8,2.1-8,3.6-11.9c1.1-2.9,1.8-5.9,1.3-8.9C1537.9,730.9,1537,727.6,1536.3,724.2z M1266.6,411.5
					c-0.1-0.4-0.2-0.7-0.2-1.1c-1.7,0-3.4,0-5,0c-0.9,0-1.8,0.4-2.6,0.3c-5.8-0.8-11.2,0.4-16.6,2.5c-1.4,0.5-3.1,0.7-4.5,0.5
					c-4.5-0.9-8.5,1-12.7,1.8c-1.3,0.2-2.7,1.9-3.4,3.2c-0.7,1.3-1.4,2.1-2.8,2.4c-2.9,0.7-5.8,1.4-8.6,2.2c-0.6,0.2-1,0.8-1.5,1.3
					c0.6,0.3,1.1,0.8,1.7,0.9c1.7,0.2,3.5,0.1,5.1,0.5c1.1,0.3,2.4,1,3,1.9c1.2,2,2.5,2,4.3,1.1c2.9-1.6,5.8-3.3,8.8-4.8
					c2.9-1.4,5.9-2.7,9-3.6c5.5-1.6,11.1-2.7,16.5-4.5C1260.2,415,1263.3,413.1,1266.6,411.5z M1357.2,495.2
					c3.2,3.2-0.8,6.1-0.2,9.5c3.3-1.2,6.5-2.3,10-3.6c-1.4-1.8-2-4.3-1.1-5.1c1.2-1.2,2.8-1.9,4.2-2.9c1.3-0.9,4.3,0.7,6.1,3.3
					c-0.7,0.4-1.4,0.8-2,1.3c-1.5,1.3-1.7,4.2-0.4,5c0.9,0.5,1.7,1.3,2.5,1.9c-0.9,0.7-1.8,1.4-2.7,2.1c-0.3,0.2-0.6,0.3-1,0.4
					c1.6,1.7,3.3,2.2,5.3,1.2c1.9-0.9,4.1-1.5,5.9-2.6c1.9-1.1,3.5-2.6,5.5-4.1c-1.6-1.2-2.7-2.7-4-2.9c-1.7-0.2-1.9-1.2-2.4-2.2
					c-0.8-1.7-1.3-3.6-2.4-5c-1.5-2-6.1-2.6-2.5-6.6c0,0,0-0.1,0-0.2c-0.2-0.2-0.4-0.4-0.6-0.6c-2.2-2.4-4-2.2-5.4,0.7
					c-0.3,0.7-0.6,1.5-0.8,2.3c-0.6,3.9-0.5,3.9-4.4,4.3c-1,0.1-2.1,0.2-3.1,0.2C1360.8,491.3,1358.9,492.8,1357.2,495.2z
					 M1339.2,466.4c3.6,0,10.6-3.3,12.5-5.4c1.1-1.3,1-3.2-0.5-3.7c-1.3-0.5-2.9-0.6-4.2-0.3c-3.2,0.7-6.2,1.7-9.3,2.6
					c-1.6,0.4-3.2,0.6-4.8,1.1c-0.5,0.1-0.7,0.8-1.1,1.3c0.5,0.4,0.9,1,1.4,1.1c1.4,0.2,2.3,0.7,3.3,1.9
					C1337.1,465.8,1338.6,466.1,1339.2,466.4z M1230.2,506.7c-2.3-0.5-3.8,0.2-5.3,1.6c-1.9,1.9-4.3,3.3-6.3,5.1
					c-0.7,0.6-1,1.5-1.8,2.6c2,0.3,3.5,0.6,5,0.7c2.1,0.1,4.3,0,6.4,0.2c1.3,0.1,4.5-1.1,4.5-2.4c0-1.3-0.9-2.7-1.8-3.7
					c-0.9-1-2.3-1.4-3.9-2.3C1228.2,507.9,1229,507.4,1230.2,506.7z"/>
				<path class="st0" d="M1446.5,566.4c1.5,1.3,2.5,2.4,3.7,3.1c2.5,1.2,5.2,2.3,7.8,3.2c1.8,0.7,3.5,0.8,5.7-0.1
					c2-0.8,4.8,0.2,7.2,0.5c4.1,0.6,8.1,1.6,12.2,1.9c1.2,0.1,2.5-1.4,3.8-2.2c0.2-0.1,0.2-0.4,0.4-0.5c5.6-4.5,3-10.2,2.2-15.6
					c-0.1-0.4-0.4-1.1-0.6-1.1c-2.5,0-5.4-0.7-7.3,0.4c-4.8,2.7-8.7,2.2-12.9-1.2c-5.7-4.6-6.6-5.6-8.7-12c4.7,2.2,6.5-0.9,8.6-4.5
					c-2.3,0.3-4.3,0.6-6.2,0.9c-2.3,0.4-4.7,0.8-7,1.1c-3.6,0.5-5.7,3.3-4.7,6.8c0.1,0.4,0.2,0.7,0.3,1.1c0.1,1.2,1.3,2.7-0.6,3.5
					c-1.7,0.7-4-0.5-4.5-2.4c-0.4-1.7-1.3-2.8-2.9-3.6c-0.6-0.3-1.4-1.5-1.2-1.9c0.6-1.6-0.2-2.6-1.1-3.8c-1.4-1.8-2.5-3.9-4-5.6
					c-0.8-0.9-2.1-1.4-3.1-2.1c-0.2-0.1-0.4-0.1-0.7-0.1c-4,0.1-6.8-1.8-9.1-5c-0.9-1.2-2.4-2.2-3.9-2.8c-0.8-0.3-2.4,0-2.8,0.6
					c-1,1.4-2.2,3.2-0.7,4.9c3,3.1,5.3,7,10,8.2c2.6,0.7,4,2.9,5.4,5c0.2,0.4-0.2,1.6-0.5,1.8c-2.9,1.1-5.8,1.4-8.6-0.4
					c-0.6-0.4-1.3-0.9-1.6-1.5c-2.1-3.9-4.7-7.3-8.4-9.9c-0.3-0.2-0.5-0.6-0.7-0.9c-2.9-4.3-6.2-5.3-11.2-3.2c1,0.9,0.8,1.9-0.5,4.3
					c-2.4-0.2-4.7-0.4-6.9-0.4c-1.7,0-2.9,1-3.6,2.6c0,0.1,0,0.2-0.1,0.2c-3,3.5-5.3,7.3-7.8,11.2c-1.8,2.8-5,4.5-8.5,4.8
					c-5.1,0.4-10.2,0.6-15.3,0.7c-0.7,0-1.9-0.9-2-1.5c-1-4.1-1.5-8.2-0.4-12.3c1.2-4.6,4.8-7.1,9.5-6.9c3.9,0.2,7.7,0,11.6,0
					c1.5,0,2.2-0.5,2.2-2.3c0-2,0.6-3.9,1.1-6.6c-2.6-1.6-5.6-3.5-8.5-5.3c-0.6-0.4-1.6-1.1-1.5-1.3c0.3-0.7,0.9-1.7,1.5-1.9
					c1.7-0.5,3.5-0.5,5.3-0.8c5.8-0.7,11.3-2.2,13.8-8.1c2-4.8,5.4-7,10.3-7.4c2.8-0.3,4.7-2.2,5.2-5c0.3-1.5,0.3-3,0.8-4.4
					c0.4-1.1,1.2-2,1.8-3c0.3,0,0.6,0.1,0.9,0.1c0.8,2.2,1.6,4.3,2.2,6.5c0.6,2.3,2.1,4.1,4.6,4.1c2.6,0.1,5.3-0.4,7.9-0.7
					c2.9-0.3,5.7-0.7,8.6-1c1.8-0.2,3.7,0.1,3.5-2.7c0-0.6,0.8-1.2,1.3-1.7c1.2-1,2.5-1.9,3.7-2.9c0.8-0.7,1.6-1,1.4-2.6
					c-0.3-1.8,3.6-4.8,6-5c2.4-0.2,3.1,1.7,3.8,3.4c0.4,1,0.6,2,1,3.1c3.8-4.1,6.2-8.5,4.6-14.3c-1.5,0.3-3.2,1-4.8,1
					c-2.8,0-5.8,0-8.5-0.8c-3.9-1.1-4.7-4.5-2.3-7.8c1.1-1.5,2-3.3,2.8-5c0.3-0.6,0.3-2-0.1-2.2c-0.6-0.4-1.9-0.5-2.4-0.2
					c-2.5,1.7-4.8,3.6-7.2,5.5c-0.1,0.1-0.1,0.3-0.2,0.4c-4.1,3.8-4.5,9.3-6.4,14.2c-1,2.7-2.6,5.3-4.1,7.9
					c-0.8,1.4-5.8,2.8-7.2,2.1c-0.5-0.3-1-0.9-1.3-1.4c-0.5-1-0.9-2-1.4-3c-0.9-1.7-1.7-3.5-4.1-1.4c-0.4,0.4-1.3,0.3-1.9,0.3
					c-2,0-4-0.1-6-0.1c-3.4,0-3.4,0-4-3.4c-0.2-1.2-0.3-2.4-0.6-3.5c-0.7-2.4,0.1-3.9,2.5-4.6c0.5-0.1,0.9-0.5,1.4-0.6
					c5.5-0.8,8.6-4.8,12-8.6c1.7-1.9,4.4-3,5.9-5c5.3-6.9,12.9-9,20.7-10.4c7.2-1.4,14.2-1.2,21.2,1.6c5.3,2.2,11.1,3.4,16.6,5
					c1.2,0.4,2.3,0.9,3.5,1.3c0,0.3,0.1,0.6,0.1,0.9c-1.4,0.5-2.9,1.4-4.3,1.3c-2.5-0.1-5-0.7-7.5-1.1c-1.5-0.2-3-0.4-4.7-0.7
					c0,0.7-0.1,1.1,0,1.3c2.6,3.5,5.4,7,9.5,8.8c2.9,1.3,5.9-0.4,6.7-3.5c0.4-1.5,1-2.3,2.7-2.3c2.9,0,5.2-1.6,6.4-4.1
					c1.1-2.2,2.5-2.6,4.8-1.9c-0.3,0.6-0.6,1.2-0.9,1.9c1.6,1.2,3.2,1.2,4.8,0.2c1.3-0.8,2.7-1.7,4.1-2.2c1.3-0.5,2.8-0.9,4.1-0.7
					c5.3,1,10.1-0.5,14.8-2.4c1.7-0.7,5.7-0.6,6.8,0.7c27,28.2,47.5,60.5,61,97.2c3.4,9.3,6.3,18.7,8.7,28.3
					c2.5,9.8,4,19.8,5.9,29.7c0,0.2,0,0.4,0,0.6c-1.9-0.1-3.9-0.2-5.7-0.4c-0.7-0.1-1.3-0.6-1.8-1.1c-2.7-2.7-5.3-5.4-8.1-8
					c-0.7-0.6-1.8-1.2-2.7-1.2c-10.6,1.1-20.5-1.9-30.4-4.9c-5.6-1.7-10.5-4.3-15.6-7.1c-3.9-2.1-8.4-3.3-12.6-4.9
					c-0.5-0.2-1.2,0-1.9,0c0.2,1.3,0.6,2.4,0.4,3.3c-0.7,3.7,1,6.3,3.6,8.6c2,1.8,4.1,3.7,6,5.7c1.1,1.1,1.9,2.3,3.2,3.9
					c1.9-0.5,4.4-1.2,6.9-1.9c2.1-0.5,4.2-1,6.3-1.4c2.6-0.5,4.5,0.3,6.1,2.5c1.6,2.2,3.7,4.1,5.5,6.1c0.8,0.9,1.7,1.7,2.3,2.7
					c0.8,1.3,0.4,2.3-1.1,3.1c-1.5,0.8-3,1.6-4.4,2.5c-2.9,2-5.9,4-8.7,6.2c-1.4,1.1-3,2.2-3.9,3.6c-1.3,2.3-3.4,3.5-5.4,4.8
					c-3.1,1.9-6.2,3.8-9.2,5.9c-1.9,1.4-4,1.5-6.2,1.2c-0.3,0-0.6-0.2-0.9-0.2c-4.9-0.8-7.4-3.6-8.7-8.6c-1.1-4.2-4.2-7.9-6.4-11.8
					c-1.3-2.3-3-4.5-3.9-6.9c-1.7-4.6-4-8.5-8.6-10.6c-3.4-1.5-5.4-4-6.7-7.5c-1.7-4.7-3.8-9.1-5.5-13.2c-0.9,0.9-2.1,1.9-3,3
					c-0.3,0.4-0.5,1.2-0.4,1.7c2.1,7.5,4.7,14.7,9,21.4c6.4,9.8,13.2,19.5,17.6,30.4c1,2.5,1.7,5.2,2.5,7.8c0.5,1.4,0.9,2.8,1.5,4.2
					c1.8,3.7,4,4.2,7.3,1.8c0.5-0.3,1-0.7,1.6-0.7c1.9-0.1,3.7-0.1,5.6-0.1c3.8,0,7.5,0,12,0c-3.6,3.9-3.4,8.4-4.1,12.6
					c-0.8,4.5-2.7,8.4-6.4,11.1c-3.6,2.6-7.5,4.8-11.1,7.3c-0.8,0.5-1.5,1.4-1.9,2.3c-2.5,5-4.8,10-7.4,14.9
					c-2.1,3.9-4.5,7.7-6.8,11.5c-0.8,1.2-1,2.2,0,3.4c4.6,5.6,5.6,12,5.4,19.1c-0.1,4.7-1.2,7.5-5.6,9.4c-4.8,2-8.9,5.2-12,9.4
					c-0.7,1-1.3,2.1-1.6,3.3c-0.6,2.9-1.2,5.8-1.5,8.8c-0.4,3.8-2.5,6.8-4.2,10c-5.2,9.7-10.5,19.3-15.7,29c-0.9,1.7-2,2.9-4.1,3
					c-5,0.2-9.9,0.5-14.9,0.8c-1.4,0.1-2.9,0-4.2,0.5c-1.9,0.8-3.1,0.4-4.4-1.1c-1.7-2-3.8-3.2-3.7-6.7c0.1-5.2-2.5-9.9-6-13.8
					c-3.3-3.7-4-8.2-4.3-12.8c-0.3-4.5-0.8-8.9-4.3-12.3c-0.8-0.8-1.1-2.2-1.5-3.4c-2.5-7.2-5.1-14.4-1.1-21.8
					c2.7-5.1,3.2-9.9,1.8-15.8c-2.1-8.7-5.8-16.4-10.7-23.6c-2.9-4.3-2.3-8,0.1-12c0.7-1.1,1.5-2.2,2.1-3.4c1.2-2,1-2.8-1.1-3.6
					c-2-0.8-3.4-2-3.6-4.3c-0.2-1.8-1.6-1.7-2.9-1.5c-3.7,0.4-6.9-0.5-9.7-3c-1.2-1-2.5-1.9-4-2.5c-0.8-0.4-1.9-0.3-2.8-0.2
					c-2,0.3-4,0.4-5.9,1.1c-6.8,2.4-14,3.1-21.1,4.5c-1.9,0.4-3.8,1.1-5.8,1.3c-3.5,0.5-6.1-1.3-8.6-3.5c-1.2-1.1-2.3-2.4-3.6-3.3
					c-2.9-2-4.3-4.7-4.3-8.1c-0.1-2.9-1.4-4.8-4-5.8c-7.1-2.6-7.9-9.3-9.8-15.1c-0.6-1.8,0.1-3.5,1.7-4.7c1.8-1.4,2.2-3.2,1.6-5.4
					c-0.2-0.7-0.4-1.5-0.7-2.1c-2.4-4.7-1.6-9.5,0.4-14c1.5-3.4,3.6-6.7,5.4-10c0.1-0.2,0.2-0.4,0.4-0.5c5.4-2.8,7.2-9.1,11.9-12.7
					c0.8-0.6,1.2-1.8,1.5-2.8c1.4-4.6,2.9-9,7-12.1c3.4-2.6,6.4-5.6,9.5-8.4c1.7-1.5,2.5-1.5,3.7,0.5c0.8,1.3,1.8,1.8,3.3,1.8
					c4.6-0.1,9.2,0,13.5-2.2c0.9-0.5,2.2-0.6,3.3-0.5c6.7,0.4,13-1.1,18.9-4c1.6-0.8,3-0.6,4.1,0.5c0.6,0.6,0.5,2,0.3,2.9
					c-0.5,3.5,1.6,5.8,3.9,7.8c2.4,2.1,5.2,3.6,6.8,6.6c0.4,0.7,1.6,1.1,2.4,1.3c2.7,0.7,5.4,1.2,8.1,1.7c2.6,0.5,5.3,0.9,7.6-0.9
					c0.5-0.4,1-1,1-1.6C1441.9,568.7,1444.8,567.7,1446.5,566.4z"/>
				<path class="st0" d="M1118.2,457.2c0.8,0.4,1.4,0.6,1.9,1c1.8,1.3,3.7,1.3,5.9,1c4.4-0.6,9-0.3,13.3-1.1
					c6.1-1.1,12.3-2.4,18.1-4.6c3.9-1.5,7.1-4.5,8.4-9c1-3.5,2.2-6.9,3.5-10.3c0.3-0.7,1.4-1.5,2-1.4c4.8,0.9,9.5,1.9,14,2.9
					c-2.8,1-5.8,1.9-8.6,3.1c-2.3,1-2.4,1.7-0.8,3.6c1.9,2.4,3.8,4.8,5.7,7.1c1,1.3,2,2.1,3.3,0.4c0.2-0.2,0.5-0.5,0.7-0.5
					c3.9-0.3,7.9-0.6,11.9-0.9c-1.5,2.1-2.5,4-3.9,5.5c-1,1-2.4,2-3.8,2.3c-4.1,0.8-8.2,1.3-12.3,2c-1.2,0.2-2.5,0.4-3.8,0.4
					c-1.2,0.1-1.8,0.4-1.7,1.7c0,0.4-0.1,1.2-0.4,1.4c-2.4,1.3-4.8,3.3-7.3,3.5c-7.9,0.5-13.6,5.2-19.5,9.6
					c-3.3,2.4-3.6,8.2-1.1,11.4c0.3,0.4,1.4,0.9,1.8,0.6c1.3-0.7,2.2-0.1,3.3,0.5c3.6,2,7.2,3.8,10.9,5.7c0.4,0.2,0.8,0.3,1.2,0.3
					c1.2-0.1,2.4-0.3,3.9-0.2c-2.5,2.9-2.3,6.2-2.5,9.4c-0.2,2.6,0.3,3.1,2.8,2c1.5-0.6,3-1.7,3.9-3c4.7-7.3,9.4-14.6,15.6-20.9
					c0.9-0.9,1.5-2,2.2-3.1c3.5-5.6,8.1-7.6,14.5-6.4c0.4,0.1,0.7,0.1,1.1,0.2c4.2,0.7,4.2,0.7,4.7,5.1c0.2,1.6,1.1,2,2.4,2
					c4.2,0,8.5,0.2,12.1-2.7c0.2-0.2,0.5-0.2,1.4-0.5c0,1.7-0.1,3.1,0,4.5c0.2,3.5,0.4,7.1,0.7,10.6c0,0.6,0.3,1.3,0.7,1.6
					c2.6,2,5.2,3.8,8,5.9c-3.4,2.8-7.1,5.6-11.6,6.5c-4.2,0.9-8.6,1-12.8,1.8c-2.3,0.5-4.4,1.7-6.5,2.6c-0.7,0.3-1.5,0.5-2.3,0.8
					c-3.1,1.1-6.2,2.1-9.2,3.4c-1.2,0.5-2.1,1.8-3.1,2.8c0.1,0.3,0.3,0.5,0.4,0.8c4.4-0.3,8.8-0.7,13.4-1c0,1.3,0,2.1,0,2.9
					c0,1.3,0.5,2.2,1.9,2.2c2.4,0.1,3.8,1.8,4.9,3.2c-2.2,1.5-4.4,2.9-6.6,4.5c-2.3,1.7-4.9,2-7.9,2.1c0.4-3.5,3.9-3.8,5.3-5.8
					c-0.8-0.6-1.4-1.4-2.2-1.8c-0.6-0.3-1.5-0.5-2-0.3c-2.9,1.4-5.8,2.9-8.5,4.6c-3,1.9-5.5,5-8.7,6.1c-4.3,1.4-6.9,4.3-9.6,7.4
					c-1.6,1.8-3.5,3.5-5.5,4.9c-1.1,0.8-2.7,1.1-4,1.2c-2.3,0.1-5,2.5-4.8,4.8c0.3,5.8-2.1,9.6-7.3,12.3c-4.3,2.2-8.4,5.1-12.2,8.1
					c-2.9,2.2-3.4,8.8-1.4,12c1.3,2.1,1.2,7.6-0.5,9.4c-0.7,0.7-2.2,1-3.3,1c-0.5,0-1.3-1.2-1.5-1.9c-0.8-2.2-1.4-4.4-1.9-6.6
					c-0.3-1.1-0.6-2.2-0.5-3.3c0.4-2.3-0.8-3.8-2.7-5.4c0,1.9,0,3.5,0,5.8c-1.2-1-1.9-1.4-2.4-2c-0.8-0.9-1.4-2-2.1-2.9
					c-2.6-3.2-6.4-3.1-9,0c-1.8,2.2-3.8,4.3-5.4,6c-2.1-2.2-3.8-4.1-5.5-5.9c-0.2-0.2-0.6-0.4-0.8-0.3c-3.3,1.1-6.9,1.2-9.5,4.3
					c-2.6,3.2-5.7,6-8.7,8.9c-3.6,3.4-3.9,4.4-2.3,8.9c0.3,0.7,0.4,1.6,0.3,2.4c-0.6,4.3,0.6,8.2,1.9,12.2c0.2,0.5,0.4,1.1,0.8,1.3
					c3.3,2.4,6.8,4.7,11.1,4.2c2.8-0.3,5-1.7,6.1-4.5c0.6-1.5,1.1-2.9,1.8-4.3c0.8-1.8,3.2-3,4.8-2.4c1.5,0.5,2.2,3.1,1.5,5.1
					c-1,2.8-1.9,5.6-2.8,8.5c-0.8,2.4-0.3,3.5,2.4,4.3c2.6,0.7,5.4,1,8.1,1.6c3.6,0.7,3.9,1.2,3.9,4.9c0,3.8,0.1,7.6,0.3,11.3
					c0.2,2.7,2.2,4.3,4.4,5.5c0.6,0.3,2,0,2.6-0.4c2.2-1.6,4.3-1.8,6.7-0.7c0.7,0.3,1.4,0.4,2.1,0.6c4,1.4,7.2,0.8,9.5-3.1
					c0.3-0.5,1-0.8,1.6-1.1c1-0.6,2.1-1.3,3.2-1.8c0.8-0.4,1.7-0.9,2.6-1c0.5,0,1.3,0.5,1.5,1c0.2,0.3-0.2,1.1-0.5,1.5
					c-1.9,2.4-1.8,2.8,1,4.2c0.8,0.4,1.6,0.7,2.4,1.1c0.5,0.2,1.1,0.4,1.6,0.6c0.2-0.2,0.3-0.4,0.3-0.4c-2.3-4.1,1.2-6.2,3.1-8.8
					c0.2-0.2,1.5,0,1.8,0.3c3.7,4.3,8.6,5.2,13.9,5.1c4.3-0.1,7.9,1.6,11.1,4.4c6.5,5.7,13.9,9.9,22.3,11.9c2.7,0.7,4.7,1.9,6.2,4.2
					c1.5,2.4,3.2,4.7,4.7,7c2.2,3.4,1.5,5.8-2.1,7.6c-1.1,0.6-2.2,1.1-3.4,1.7c1.1,1.8,2.2,2,3.9,1.2c1.5-0.7,3.4-1.3,5-1.1
					c1.8,0.1,2,1.6,0.9,3c-0.4,0.5-0.6,1.6-0.3,2c0.4,0.4,1.5,0.6,2,0.3c1.5-0.7,2.9-1.8,4.4-2.7c1.4-0.8,2.7-1,4,0.2
					c0.8,0.7,2,1.1,2.8,1.7c0.4,0.3,0.9,1,0.9,1.5c-0.1,1.6,0.7,2.2,2.2,2c1.3-0.1,2.8-0.1,3.9-0.7c2-1,3.6-0.7,5.6,0.1
					c5.4,2.3,10.9,4.2,16.4,6.3c1.5,0.6,2.6,1.2,2.8,3c1.2,8.8-1.4,16.4-6.9,23.2c-0.6,0.7-1.3,1.5-2.2,1.9
					c-1.9,0.9-2.4,2.3-2.5,4.3c-0.2,5.5-0.5,11-0.8,16.5c-0.4,5.4-3,9.9-6.1,14.2c-0.3,0.4-1.2,0.5-1.9,0.7
					c-1.9,0.4-4.1,0.2-5.7,1.2c-3.4,2.1-6.5,4.7-9.7,7.1c-2.4,1.8-3.2,4.4-3.5,7.4c-0.3,2.5-1.1,5-1.8,7.5c-0.5,1.9-1,3.9-1.6,5.8
					c-0.5,1.3-1,2.8-2,3.8c-1.9,2.1-4.3,3.7-6.2,5.8c-3.3,3.7-7.1,3-11,1.8c-0.4-0.1-0.8-0.3-1.9-0.6c0.5,1.9,0.7,3.4,1.3,4.7
					c0.6,1.4,1.5,2.7,2.4,4c1.3,2,1,2.4-0.9,3.9c-3.6,2.8-7,5.7-10.4,8.7c-1.6,1.5-2.1,3.5-1.5,5.7c0.8,3,0.8,5.8-1.1,8.5
					c-0.5,0.7-0.5,2-0.4,3c0.1,1.6,0.3,3.2,0.8,4.6c1.8,5.1,0.9,10.4,1.7,15.6c0.3,1.7,0.7,2.6,2.6,2.6c0.7,0,1.6,0.8,1.9,1.5
					c1,2.1,1.8,4.2,2.6,6.4c0.6,1.7-0.1,2.5-2,2.3c-3-0.3-5.6-0.9-7-4.1c-0.7-1.6-2.7-2.6-4.2-3.9c-0.3-0.3-0.8-0.5-1.2-0.6
					c-5.8-2.3-9.7-6.2-11.9-12.1c-0.8-2-2.5-3.6-3.6-5.5c-0.5-0.9-1-2.1-0.8-2.9c1.2-4.8,0.3-9.3-1.4-13.8c-0.3-0.8-1.4-1.5-2.3-1.9
					c-1.8-0.8-2.7-2-2.8-3.9c-0.3-5.2-0.6-10.4-0.9-15.5c-0.2-2.9-0.3-5.8-0.8-8.7c-1.9-11-2-22-1.4-33.1c0.2-3.2,0.3-6.4,0-9.6
					c-0.5-5.2-3.1-9.3-7.3-12.3c-2-1.4-4.3-2.7-6.6-3.5c-4.2-1.5-5.8-4.6-5.9-8.6c0-3.6-1.6-6.2-4.5-7.9c-4.6-2.6-7.8-6.3-9.6-11.3
					c-0.5-1.4-1.5-2.8-2.6-3.8c-2.6-2.5-3.3-5.5-2.3-8.8c0.7-2.2,0.4-4.2-0.5-6.2c-0.5-1-0.7-2.3-0.5-3.4c0.7-4.6,1.8-9,5-12.6
					c3.1-3.6,5.1-7.9,6.4-12.4c1.4-4.9-0.5-10.4-4.6-12.8c-0.8-0.5-2.3-0.7-3-0.3c-5.7,3.7-10,0.3-13.7-3.1
					c-3.3-3.1-5.7-7.2-8.5-10.7c-0.6-0.7-1.5-1.4-2.3-1.8c-1.1-0.5-2.3-0.8-3.5-0.8c-4.3-0.1-7.7-2.2-10.5-5.2
					c-3-3.2-6.8-4-10.9-4.3c-2.3-0.1-4.7-0.5-6.7-1.4c-5.6-2.7-11.5-5-16.1-9.4c-3.3-3.2-4.6-7-3.9-11.7
					c6-41.3,20.3-79.3,43.2-114.2c7.3-11.2,15.4-21.7,24.2-31.7C1117.6,458.1,1117.9,457.7,1118.2,457.2z"/>
				<path class="st0" d="M1243.1,423.5c0.6-0.2,0.8-0.3,1-0.3c7.3,1,14.2-1.6,21.3-2.6c1.1-0.2,2-0.9,3.1-1.2
					c5.1-1.6,10-3.8,15.2-4.7c3.5-0.6,7.4,0.6,11.1,0.9c5.5,0.5,11,1,16.4,1.4c2,0.1,4,0,5.4-2c0.5-0.6,1.7-0.9,2.6-1.1
					c6.6-1,13.2-2,19.9-2.8c1.1-0.1,2.2,0.1,3.3,0.3c7.2,1.3,14.5,2.7,21.7,4.1c0.9,0.2,1.7,0.4,2.6,1c-0.4,0.1-0.8,0.3-1.3,0.3
					c-2.3,0.2-4.6,0.5-6.9,0.4c-3.4-0.1-5.8,2-8.5,3.4c-0.3,0.2-0.4,0.7-0.5,1.1c-0.3,1.3-0.5,2.6-0.8,3.9c-0.6,2.8-2.2,4.7-5,5.7
					c-1.7,0.6-3.1,1.8-4.7,2.5c-1.6,0.7-3.4,1.2-5,1.9c-0.9,0.4-1.7,1-2.6,1.5c0.6,0.7,1.1,1.7,1.9,2.2c2.2,1.3,4.5,2.5,6.5,4.2
					c-2.5,0.4-5.1,0.7-7.2,1c-1.6-1.7-2.9-3.2-4.2-4.6c-0.3,0.2-0.6,0.4-0.9,0.6c0.9,2.2,2.2,4.3,3.7,6.1
					c-5.9,1.5-11.9,2.7-17.7,4.5c-3.9,1.2-8.1,2.5-11.3,4.9c-4.6,3.4-9.4,5.6-15.1,5.9c-1,0.1-2.1,0.3-3.1,0.6
					c-1.5,0.4-2.6,1.2-2.3,3c0,0.1,0,0.1,0,0.2c-0.3,4.5-10.2,11.5-14.3,9.8c-3.4-1.4-5.9-4.3-6.6-8.2c-0.4-2.4-0.7-4.9-0.4-7.3
					c0.2-1.8,1.2-3.6,2.3-5.1c1.4-2,3.4-3.6,4.8-5.5c2.2-2.9,2.6-5.9,1.1-9.6c-3.6-8.9-11-11.7-19.4-13
					C1246.9,426.2,1245.2,425.1,1243.1,423.5z"/>
				<path class="st0" d="M1194.6,431c1.9-3.7,5-4.8,8.9-2.9c2.4,1.2,4.9,1.8,7.5,1.5c1.2-0.1,2.4-0.4,3.8-0.7c0.8,1.3,0.1,2.4-1,2.8
					c-1.8,0.7-3.8,1.3-5.7,1.4c-1.7,0.1-2.2,0.9-2.3,2.3c-0.1,1.6,1,1.7,2.2,1.9c2.8,0.5,5.7,1,8.5,1.9c4.4,1.3,8.7,3,13.1,4.2
					c1.6,0.4,1.9,1.2,1.6,2.5c-0.2,1.3-0.7,2.6-0.8,3.9c-0.5,4.3,0.9,5.9,5.1,5.8c0.3,0,0.6,0.1,0.9,0.1c-0.2,2.3-1.4,3.5-3.7,4
					c-3.6,0.8-7.2,1.9-10.7,3.1c-1.3,0.4-3,1-2.1,3.2c0.1,0.3-0.4,1.1-0.8,1.4c-1.8,1.6-6.6,2-8.6,0.8c-1.7-1-3.3-2.3-3-4.5
					c0.3-2.5,1.7-4.3,4.2-5c2.1-0.6,4.4-0.8,6.5-1.3c1-0.3,1.8-1,2.7-1.5c-0.6-0.9-1-1.9-1.7-2.6c-6-6.5-14.1-7.3-22.2-8.2
					c-3.5-0.4-6.9-0.7-10.4-1.1c-1.5-0.2-3.2-0.4-3.3-2.6c0-2.4,1.1-3.8,3.5-4c3-0.3,5.9-0.5,8.9-0.8c1.2-0.1,2.8,0,2.8-1.8
					c0-1.7-0.6-3.1-2.7-3.2C1195.5,431.3,1195.2,431.1,1194.6,431z"/>
				<path class="st0" d="M1536.3,724.2c0.7,3.3,1.6,6.6,2.1,10c0.5,3.1-0.2,6-1.3,8.9c-1.5,3.9-2,8.1-3.6,11.9
					c-2,5.1-4.6,9.9-7,14.8c-0.1,0.3-0.6,0.6-0.8,0.6c-2.6-1.1-6.2,0.3-7.9-3.1c-0.2-0.3-0.5-0.6-0.8-0.8c-4-4-4.1-4.1-1.3-9.1
					c1-1.7,2.5-3.2,3.3-5c0.6-1.6,1.2-4,0.5-5.3c-2.2-4,0.7-6.3,2.4-9.1c0.3-0.4,1.1-0.7,1.6-0.6c1.4,0.1,2.2-0.5,3.2-1.6
					c2.2-2.6,4.4-5.1,6.9-7.4C1535.5,726.7,1535.6,726.9,1536.3,724.2z"/>
				<path class="st0" d="M1266.6,411.5c-3.2,1.6-6.4,3.5-9.8,4.6c-5.4,1.8-11.1,2.8-16.5,4.5c-3.1,0.9-6.1,2.3-9,3.6
					c-3,1.4-5.8,3.2-8.8,4.8c-1.7,1-3.1,0.9-4.3-1.1c-0.6-0.9-1.9-1.6-3-1.9c-1.6-0.4-3.4-0.3-5.1-0.5c-0.6-0.1-1.1-0.6-1.7-0.9
					c0.5-0.4,1-1.1,1.5-1.3c2.9-0.8,5.7-1.6,8.6-2.2c1.4-0.3,2.1-1.1,2.8-2.4c0.7-1.3,2.1-3,3.4-3.2c4.2-0.8,8.2-2.7,12.7-1.8
					c1.4,0.3,3.2,0.1,4.5-0.5c5.4-2.1,10.8-3.3,16.6-2.5c0.8,0.1,1.7-0.3,2.6-0.3c1.7-0.1,3.4,0,5,0
					C1266.4,410.8,1266.5,411.1,1266.6,411.5z"/>
				<path class="st0" d="M1357.2,495.2c1.7-2.4,3.6-3.8,6.5-3.6c1,0.1,2.1-0.1,3.1-0.2c3.9-0.4,3.9-0.4,4.4-4.3
					c0.1-0.8,0.4-1.6,0.8-2.3c1.4-2.9,3.2-3.2,5.4-0.7c0.2,0.2,0.4,0.4,0.6,0.6c0,0.1,0.1,0.2,0,0.2c-3.6,3.9,1,4.6,2.5,6.6
					c1.1,1.4,1.6,3.3,2.4,5c0.5,1,0.7,2,2.4,2.2c1.3,0.1,2.3,1.6,4,2.9c-2,1.5-3.7,3-5.5,4.1c-1.9,1.1-4,1.7-5.9,2.6
					c-2,1-3.7,0.5-5.3-1.2c0.4-0.2,0.8-0.2,1-0.4c0.9-0.7,1.8-1.4,2.7-2.1c-0.8-0.7-1.6-1.4-2.5-1.9c-1.3-0.8-1.1-3.7,0.4-5
					c0.6-0.5,1.3-0.9,2-1.3c-1.8-2.7-4.7-4.3-6.1-3.3c-1.4,1-3,1.8-4.2,2.9c-0.9,0.9-0.3,3.4,1.1,5.1c-3.4,1.2-6.7,2.4-10,3.6
					C1356.4,501.3,1360.4,498.4,1357.2,495.2z"/>
				<path class="st0" d="M1339.2,466.4c-0.6-0.3-2.1-0.6-2.8-1.6c-0.9-1.2-1.9-1.7-3.3-1.9c-0.5-0.1-1-0.7-1.4-1.1
					c0.4-0.4,0.7-1.1,1.1-1.3c1.6-0.5,3.2-0.6,4.8-1.1c3.1-0.8,6.2-1.9,9.3-2.6c1.3-0.3,2.9-0.1,4.2,0.3c1.5,0.6,1.6,2.5,0.5,3.7
					C1349.7,463.2,1342.8,466.4,1339.2,466.4z"/>
				<path class="st0" d="M1230.2,506.7c-1.2,0.7-2,1.2-3.1,1.9c1.5,0.9,3,1.3,3.9,2.3c0.9,1,1.7,2.4,1.8,3.7c0,1.3-3.1,2.5-4.5,2.4
					c-2.1-0.2-4.3-0.1-6.4-0.2c-1.5-0.1-3-0.4-5-0.7c0.8-1.2,1.1-2.1,1.8-2.6c2.1-1.7,4.4-3.2,6.3-5.1
					C1226.4,506.9,1227.9,506.2,1230.2,506.7z"/>
			</g>
		</g>
		<linearGradient id="SVGID_1_" gradientUnits="userSpaceOnUse" x1="13.6364" y1="641.2621" x2="1786.3636" y2="641.2621">
			<stop  offset="0" style="stop-color:#24B2A9"/>
			<stop  offset="0.9799" style="stop-color:#334192"/>
		</linearGradient>
		<path class="st1" d="M1786.4,1025.9c-110.1,130.3-274.7,213.2-458.6,213.2c-168.9,0-321.5-69.8-430.5-182.1
			c-11.9,17.3-25,33.5-39.4,49c-40.5,43.1-90.9,76.9-151.4,101.2c-60.4,24.3-130,36.5-208.8,36.5c-79.9,0-150-12.2-210.5-36.5
			c-60.4-24.3-110.9-58.1-151.4-101.2c-40.4-43.1-70.9-94-91.4-152.6c-20.6-58.6-30.8-122.8-30.8-192.5V39.3h252.6v711.6
			c0,36.5,5.6,70.2,17,101.2c11.4,31,27.2,57.8,47.7,80.5c20.5,22.6,45.1,40.4,73.7,53c28.6,12.8,59.6,19.1,93.1,19.1
			c33.4,0,64.2-6.3,92.3-19.1c28-12.6,52.3-30.4,72.8-53c20.5-22.6,36.4-49.5,47.7-80.5c11.4-31,17-64.7,17-101.2V39.3h252.6v110.6
			c98-69.9,218.1-111,347.7-111c175.8,0,333.8,75.6,443.7,196.1l-179.3,178.3c-63.7-74.7-158.5-122-264.4-122
			c-192,0-347.7,155.7-347.7,347.8c0,192,155.7,347.7,347.7,347.7c111,0,209.8-52,273.4-132.9L1786.4,1025.9z"/>
	</g>
	<g>
		<g>
			<path class="st2" d="M177.7,1530.8c0,11-1.7,21.1-5,30.3c-3.3,9.2-8.2,17.2-14.8,24c-6.5,6.8-14.7,12.1-24.4,15.9
				c-9.8,3.8-21,5.7-33.7,5.7c-12.9,0-24.2-1.9-34-5.7c-9.8-3.8-17.9-9.1-24.4-15.9c-6.5-6.8-11.5-14.8-14.8-24
				c-3.3-9.2-5-19.3-5-30.3v-113.6h40.7v112c0,5.7,0.9,11.1,2.7,15.9c1.8,4.9,4.4,9.1,7.7,12.7c3.3,3.6,7.3,6.4,11.9,8.4
				c4.6,2,9.6,3,15,3c5.4,0,10.4-1,14.9-3c4.5-2,8.4-4.8,11.8-8.4c3.3-3.6,5.9-7.8,7.7-12.7c1.8-4.9,2.7-10.2,2.7-15.9v-112h40.7
				V1530.8z"/>
			<path class="st2" d="M215.3,1417.2h55.4l78.6,128.5h0.5v-128.5h40.7v184.9h-53.3l-80.7-131.6h-0.5v131.6h-40.7V1417.2z"/>
			<path class="st2" d="M427.7,1417.2h40.7v184.9h-40.7V1417.2z"/>
			<path class="st2" d="M487.2,1417.2h46.5l45.7,121.2h0.5l46.5-121.2H670l-76.3,184.9h-32.6L487.2,1417.2z"/>
			<path class="st2" d="M690.9,1417.2h125.6v37.6h-84.9v34.5h80.2v37.6h-80.2v37.6h89.6v37.6H690.9V1417.2z"/>
			<path class="st2" d="M853.9,1417.2h71.6c9.4,0,18.3,0.9,26.8,2.7c8.4,1.8,15.8,4.9,22.2,9.1c6.4,4.3,11.4,10,15.1,17.2
				c3.7,7.2,5.6,16.2,5.6,27c0,13.1-3.4,24.2-10.2,33.3c-6.8,9.1-16.7,14.9-29.8,17.4l47,78.1h-48.8l-38.7-73.9h-20.1v73.9h-40.7
				V1417.2z M894.7,1493.7h24c3.7,0,7.5-0.1,11.6-0.4c4.1-0.3,7.8-1,11.1-2.4c3.3-1.3,6-3.4,8.2-6.1c2.2-2.8,3.3-6.7,3.3-11.8
				c0-4.7-1-8.4-2.9-11.2c-1.9-2.8-4.4-4.9-7.3-6.4c-3-1.5-6.4-2.5-10.2-3c-3.8-0.5-7.6-0.8-11.2-0.8h-26.6V1493.7z"/>
			<path class="st2" d="M1114.6,1462.4c-3.3-4.2-7.8-7.3-13.5-9.3c-5.7-2-11-3-16.1-3c-3,0-6,0.4-9.1,1c-3.1,0.7-6.1,1.8-8.9,3.3
				c-2.8,1.5-5.1,3.4-6.8,5.9c-1.7,2.4-2.6,5.4-2.6,8.9c0,5.6,2.1,9.9,6.3,12.8c4.2,3,9.4,5.5,15.8,7.6c6.4,2.1,13.2,4.2,20.5,6.3
				s14.1,5.1,20.5,8.9c6.4,3.8,11.6,9,15.8,15.4c4.2,6.4,6.3,15.1,6.3,25.9c0,10.3-1.9,19.2-5.7,26.9c-3.8,7.7-9,14-15.5,19.1
				c-6.5,5.1-14.1,8.8-22.7,11.2c-8.6,2.4-17.7,3.7-27.3,3.7c-12,0-23.2-1.8-33.4-5.5c-10.3-3.7-19.9-9.6-28.7-17.8l29-31.9
				c4.2,5.6,9.4,9.9,15.8,12.9c6.4,3,12.9,4.6,19.7,4.6c3.3,0,6.7-0.4,10.1-1.2c3.4-0.8,6.4-2,9.1-3.5c2.7-1.6,4.9-3.6,6.5-6
				c1.7-2.4,2.5-5.3,2.5-8.6c0-5.6-2.1-10-6.4-13.2c-4.3-3.2-9.6-6-16.1-8.2s-13.4-4.5-20.9-6.8c-7.5-2.3-14.5-5.3-20.9-9.1
				c-6.4-3.8-11.8-8.9-16.1-15.1c-4.3-6.3-6.4-14.5-6.4-24.8c0-9.9,2-18.6,5.9-26.1c3.9-7.5,9.1-13.8,15.7-18.8
				c6.5-5,14.1-8.8,22.6-11.4c8.5-2.5,17.3-3.8,26.4-3.8c10.5,0,20.5,1.5,30.3,4.4s18.5,7.9,26.4,14.9L1114.6,1462.4z"/>
			<path class="st2" d="M1294,1465.2c-4-4.9-8.9-8.6-14.8-11.2c-5.8-2.6-12.6-3.9-20.2-3.9c-7.7,0-14.8,1.5-21.3,4.4
				c-6.5,3-12.2,7.1-17,12.4c-4.8,5.3-8.5,11.6-11.2,18.9c-2.7,7.3-4,15.2-4,23.8c0,8.7,1.3,16.7,4,23.9c2.7,7.2,6.4,13.5,11.1,18.8
				c4.7,5.3,10.2,9.4,16.6,12.4c6.4,3,13.2,4.4,20.5,4.4c8.4,0,15.8-1.7,22.2-5.2c6.4-3.5,11.8-8.4,15.9-14.6l34,25.3
				c-7.8,11-17.8,19.1-29.8,24.3s-24.4,7.8-37.1,7.8c-14.5,0-27.8-2.3-40-6.8c-12.2-4.5-22.7-11-31.6-19.5
				c-8.9-8.4-15.8-18.7-20.8-30.7c-5-12-7.4-25.4-7.4-40.2c0-14.8,2.5-28.2,7.4-40.2c5-12,11.9-22.2,20.8-30.7
				c8.9-8.4,19.4-14.9,31.6-19.5c12.2-4.5,25.5-6.8,40-6.8c5.2,0,10.7,0.5,16.3,1.4c5.6,1,11.2,2.5,16.7,4.6
				c5.5,2.1,10.7,4.9,15.8,8.4c5.1,3.5,9.6,7.7,13.6,12.8L1294,1465.2z"/>
			<path class="st2" d="M1342,1509.6c0-14.8,2.5-28.2,7.4-40.2c5-12,11.9-22.2,20.8-30.7c8.9-8.4,19.4-14.9,31.6-19.5
				c12.2-4.5,25.5-6.8,40-6.8c14.4,0,27.8,2.3,40,6.8c12.2,4.5,22.7,11,31.6,19.5c8.9,8.5,15.8,18.7,20.8,30.7
				c5,12,7.4,25.4,7.4,40.2c0,14.8-2.5,28.2-7.4,40.2c-5,12-11.9,22.3-20.8,30.7c-8.9,8.4-19.4,14.9-31.6,19.5
				c-12.2,4.5-25.5,6.8-40,6.8c-14.5,0-27.8-2.3-40-6.8c-12.2-4.5-22.7-11-31.6-19.5c-8.9-8.4-15.8-18.7-20.8-30.7
				C1344.5,1537.8,1342,1524.4,1342,1509.6z M1384.4,1509.6c0,8.7,1.3,16.7,4,23.9c2.7,7.2,6.6,13.5,11.6,18.8
				c5.1,5.3,11.1,9.4,18.2,12.4c7,3,14.9,4.4,23.6,4.4c8.7,0,16.6-1.5,23.6-4.4c7-3,13.1-7.1,18.1-12.4c5.1-5.3,8.9-11.6,11.6-18.8
				c2.7-7.2,4.1-15.2,4.1-23.9c0-8.5-1.4-16.5-4.1-23.8c-2.7-7.3-6.6-13.6-11.6-18.9c-5.1-5.3-11.1-9.4-18.1-12.4
				c-7.1-3-14.9-4.4-23.6-4.4c-8.7,0-16.6,1.5-23.6,4.4c-7.1,3-13.1,7.1-18.2,12.4c-5.1,5.3-8.9,11.6-11.6,18.9
				C1385.7,1493.2,1384.4,1501.1,1384.4,1509.6z"/>
			<path class="st2" d="M1569.3,1417.2h61.6l42.6,120.7h0.5l42.8-120.7h61.4v184.9h-40.7v-141.8h-0.5l-48.6,141.8h-31.1l-46.7-141.8
				h-0.5v141.8h-40.7V1417.2z"/>
		</g>
		<g>
			<path class="st2" d="M21.8,1668.8H48c9.1,0,16.4,2,21.7,6c5.3,4,7.9,10,7.9,18s-2.6,14.1-7.9,18.1c-5.3,4-12.5,6-21.7,6h-17v41.8
				h-9.1V1668.8z M30.9,1708.6h14.7c4.1,0,7.5-0.4,10.4-1.3c2.8-0.8,5.1-2,6.8-3.4c1.7-1.4,2.9-3,3.7-5c0.8-1.9,1.1-4,1.1-6.2
				c0-2.1-0.4-4.1-1.1-6c-0.8-1.9-2-3.6-3.7-5c-1.7-1.4-4-2.6-6.8-3.4c-2.8-0.8-6.3-1.2-10.4-1.2H30.9V1708.6z"/>
			<path class="st2" d="M182.4,1713.8c0,6.9-1.2,13.2-3.6,18.9c-2.4,5.8-5.7,10.7-9.8,14.9c-4.2,4.2-9.1,7.5-14.9,9.8
				c-5.7,2.4-11.9,3.6-18.6,3.6c-6.7,0-12.9-1.2-18.6-3.6c-5.7-2.4-10.7-5.7-14.9-9.8c-4.2-4.2-7.5-9.2-9.8-14.9
				c-2.4-5.8-3.6-12.1-3.6-18.9c0-6.9,1.2-13.2,3.6-18.9c2.4-5.8,5.7-10.7,9.8-14.9c4.2-4.2,9.1-7.5,14.9-9.8
				c5.7-2.4,11.9-3.6,18.6-3.6c6.7,0,12.9,1.2,18.6,3.6c5.7,2.4,10.7,5.7,14.9,9.8c4.2,4.2,7.5,9.2,9.8,14.9
				C181.2,1700.6,182.4,1706.9,182.4,1713.8z M172.5,1713.8c0-5.2-0.8-10.1-2.5-14.8c-1.7-4.7-4.1-8.8-7.3-12.4
				c-3.2-3.6-7-6.4-11.6-8.5c-4.6-2.1-9.7-3.2-15.5-3.2c-5.8,0-10.9,1.1-15.5,3.2c-4.6,2.1-8.4,5-11.6,8.5
				c-3.2,3.6-5.6,7.7-7.3,12.4s-2.5,9.6-2.5,14.8c0,5.2,0.8,10.1,2.5,14.8c1.7,4.7,4.1,8.8,7.3,12.4c3.2,3.6,7.1,6.4,11.6,8.5
				c4.6,2.1,9.7,3.2,15.5,3.2c5.8,0,10.9-1.1,15.5-3.2c4.6-2.1,8.5-5,11.6-8.5c3.2-3.6,5.6-7.7,7.3-12.4
				C171.6,1723.9,172.5,1718.9,172.5,1713.8z"/>
			<path class="st2" d="M265,1725.2c0,3.7-0.4,7.7-1.3,11.9s-2.6,8.1-5,11.6c-2.5,3.6-5.8,6.5-10.1,8.8c-4.3,2.3-9.8,3.5-16.5,3.5
				c-6.8,0-12.3-1.2-16.5-3.5c-4.2-2.3-7.6-5.3-10-8.8c-2.5-3.6-4.1-7.4-5-11.6c-0.9-4.2-1.3-8.2-1.3-11.9v-56.4h9.1v55.4
				c0,4.3,0.4,8,1.3,11.1c0.8,3.1,2,5.7,3.4,7.8c1.4,2.1,3,3.8,4.7,5c1.7,1.2,3.5,2.2,5.2,2.9c1.7,0.7,3.4,1.1,5,1.3
				c1.6,0.2,3,0.3,4.2,0.3c1.1,0,2.5-0.1,4.1-0.3c1.7-0.2,3.3-0.7,5.1-1.3c1.7-0.7,3.5-1.6,5.2-2.9c1.7-1.2,3.3-2.9,4.7-5
				c1.4-2.1,2.5-4.7,3.4-7.8c0.8-3.1,1.3-6.8,1.3-11.1v-55.4h9.1V1725.2z"/>
			<path class="st2" d="M297,1758.7h-9.1v-90h27.7c9.1,0,16.4,2,21.7,6c5.3,4,7.9,10,7.9,18c0,6.3-2,11.5-5.9,15.8
				s-9.6,6.8-17.1,7.4l25.9,42.7h-11.2l-24.6-41.8H297V1758.7z M297,1708.6h16.3c4.1,0,7.5-0.4,10.4-1.3c2.8-0.8,5.1-2,6.8-3.4
				c1.7-1.4,2.9-3,3.7-5c0.8-1.9,1.1-4,1.1-6.2c0-2.1-0.4-4.1-1.1-6c-0.8-1.9-2-3.6-3.7-5c-1.7-1.4-4-2.6-6.8-3.4
				c-2.8-0.8-6.3-1.2-10.4-1.2H297V1708.6z"/>
			<path class="st2" d="M462.8,1725.2c0,3.7-0.4,7.7-1.3,11.9s-2.6,8.1-5,11.6c-2.5,3.6-5.8,6.5-10.1,8.8c-4.3,2.3-9.8,3.5-16.5,3.5
				c-6.8,0-12.3-1.2-16.5-3.5c-4.2-2.3-7.6-5.3-10-8.8c-2.5-3.6-4.1-7.4-5-11.6s-1.3-8.2-1.3-11.9v-56.4h9.1v55.4
				c0,4.3,0.4,8,1.3,11.1c0.8,3.1,2,5.7,3.4,7.8c1.4,2.1,3,3.8,4.7,5c1.7,1.2,3.5,2.2,5.2,2.9c1.7,0.7,3.4,1.1,5,1.3
				c1.6,0.2,3,0.3,4.2,0.3c1.1,0,2.5-0.1,4.1-0.3c1.7-0.2,3.3-0.7,5.1-1.3c1.7-0.7,3.5-1.6,5.2-2.9c1.7-1.2,3.3-2.9,4.7-5
				c1.4-2.1,2.5-4.7,3.4-7.8c0.8-3.1,1.3-6.8,1.3-11.1v-55.4h9.1V1725.2z"/>
			<path class="st2" d="M550.7,1745h0.3v-76.2h9.1v90h-11.4l-53.6-77h-0.3v77h-9.1v-90h11.4L550.7,1745z"/>
			<path class="st2" d="M593.6,1750.4h48.2v8.4h-57.3v-90h55.8v8.4h-46.6v30.6h43.6v8.4h-43.6V1750.4z"/>
			<path class="st2" d="M721.3,1745h0.3l29.5-76.2h9.9l-35.1,90h-9.1l-34.2-90h10.2L721.3,1745z"/>
			<path class="st2" d="M781.9,1758.7h-9.1v-90h9.1V1758.7z"/>
			<path class="st2" d="M848.9,1683.7c-4-5.8-9.8-8.8-17.4-8.8c-2.4,0-4.7,0.3-7,1c-2.3,0.6-4.3,1.6-6.2,2.9c-1.8,1.3-3.3,3-4.4,5.1
				c-1.1,2.1-1.7,4.5-1.7,7.3c0,4.1,1.1,7.2,3.4,9.5c2.3,2.2,5.1,4.1,8.5,5.5c3.4,1.4,7.1,2.7,11.1,3.9c4,1.1,7.7,2.7,11.1,4.6
				c3.4,1.9,6.2,4.4,8.5,7.6c2.3,3.1,3.4,7.4,3.4,12.8c0,4.1-0.9,7.7-2.6,11c-1.7,3.3-4,6-6.9,8.2c-2.8,2.2-6,3.9-9.5,5.1
				c-3.5,1.2-7.1,1.8-10.6,1.8c-5.5,0-10.7-1-15.7-3.1c-5-2.1-9.2-5.5-12.6-10.2l8.4-6c1.9,3.3,4.6,6,8.1,7.9c3.5,2,7.6,3,12.3,3
				c2.3,0,4.6-0.4,6.8-1.1c2.3-0.7,4.3-1.8,6.1-3.2c1.8-1.4,3.3-3.1,4.5-5.1c1.2-2,1.8-4.4,1.8-7c0-3.1-0.7-5.7-2-7.8
				c-1.3-2.1-3-3.8-5.2-5.2c-2.2-1.4-4.6-2.6-7.4-3.5c-2.8-0.9-5.6-1.9-8.5-2.8c-2.9-0.9-5.8-2-8.5-3.2c-2.8-1.2-5.2-2.7-7.4-4.5
				c-2.2-1.8-3.9-4.1-5.2-6.9c-1.3-2.7-2-6.2-2-10.4c0-4.3,0.8-8.1,2.5-11.3c1.7-3.2,3.9-5.9,6.6-8c2.8-2.1,5.9-3.7,9.3-4.7
				c3.5-1,7-1.5,10.7-1.5c5.1,0,9.7,0.8,13.9,2.4c4.1,1.6,8,4.4,11.6,8.5L848.9,1683.7z"/>
			<path class="st2" d="M886.1,1758.7h-9.1v-90h9.1V1758.7z"/>
			<path class="st2" d="M998.1,1713.8c0,6.9-1.2,13.2-3.6,18.9c-2.4,5.8-5.7,10.7-9.8,14.9c-4.2,4.2-9.1,7.5-14.9,9.8
				s-11.9,3.6-18.6,3.6c-6.7,0-12.9-1.2-18.6-3.6c-5.7-2.4-10.7-5.7-14.9-9.8c-4.2-4.2-7.5-9.2-9.8-14.9c-2.4-5.8-3.6-12.1-3.6-18.9
				c0-6.9,1.2-13.2,3.6-18.9c2.4-5.8,5.7-10.7,9.8-14.9c4.2-4.2,9.1-7.5,14.9-9.8c5.7-2.4,11.9-3.6,18.6-3.6
				c6.7,0,12.9,1.2,18.6,3.6c5.7,2.4,10.7,5.7,14.9,9.8c4.2,4.2,7.5,9.2,9.8,14.9C997,1700.6,998.1,1706.9,998.1,1713.8z
				 M988.2,1713.8c0-5.2-0.8-10.1-2.5-14.8c-1.7-4.7-4.1-8.8-7.3-12.4c-3.2-3.6-7-6.4-11.6-8.5c-4.6-2.1-9.7-3.2-15.5-3.2
				c-5.8,0-10.9,1.1-15.5,3.2c-4.6,2.1-8.4,5-11.6,8.5c-3.2,3.6-5.6,7.7-7.3,12.4c-1.7,4.7-2.5,9.6-2.5,14.8
				c0,5.2,0.8,10.1,2.5,14.8c1.7,4.7,4.1,8.8,7.3,12.4c3.2,3.6,7.1,6.4,11.6,8.5c4.6,2.1,9.7,3.2,15.5,3.2c5.8,0,10.9-1.1,15.5-3.2
				c4.6-2.1,8.5-5,11.6-8.5c3.2-3.6,5.6-7.7,7.3-12.4C987.4,1723.9,988.2,1718.9,988.2,1713.8z"/>
			<path class="st2" d="M1081.5,1745h0.3v-76.2h9.1v90h-11.4l-53.6-77h-0.3v77h-9.1v-90h11.4L1081.5,1745z"/>
			<path class="st2" d="M1159.8,1758.7h-9.1v-90h54.3v8.4h-45.1v30.6h41.9v8.4h-41.9V1758.7z"/>
			<path class="st2" d="M1285.5,1725.2c0,3.7-0.4,7.7-1.3,11.9s-2.6,8.1-5,11.6c-2.5,3.6-5.8,6.5-10.1,8.8
				c-4.3,2.3-9.8,3.5-16.5,3.5c-6.8,0-12.3-1.2-16.5-3.5c-4.2-2.3-7.6-5.3-10-8.8c-2.5-3.6-4.1-7.4-5-11.6s-1.3-8.2-1.3-11.9v-56.4
				h9.1v55.4c0,4.3,0.4,8,1.3,11.1c0.8,3.1,2,5.7,3.4,7.8c1.4,2.1,3,3.8,4.7,5c1.7,1.2,3.5,2.2,5.2,2.9c1.7,0.7,3.4,1.1,5,1.3
				c1.6,0.2,3,0.3,4.2,0.3c1.1,0,2.5-0.1,4.1-0.3c1.7-0.2,3.3-0.7,5.1-1.3c1.7-0.7,3.5-1.6,5.2-2.9c1.7-1.2,3.3-2.9,4.7-5
				c1.4-2.1,2.5-4.7,3.4-7.8c0.8-3.1,1.3-6.8,1.3-11.1v-55.4h9.1V1725.2z"/>
			<path class="st2" d="M1337.2,1758.7h-9.1v-81.6H1298v-8.4h69.4v8.4h-30.1V1758.7z"/>
			<path class="st2" d="M1445.6,1725.2c0,3.7-0.4,7.7-1.3,11.9s-2.6,8.1-5,11.6c-2.5,3.6-5.8,6.5-10.1,8.8
				c-4.3,2.3-9.8,3.5-16.5,3.5c-6.8,0-12.3-1.2-16.5-3.5c-4.2-2.3-7.6-5.3-10-8.8c-2.5-3.6-4.1-7.4-5-11.6s-1.3-8.2-1.3-11.9v-56.4
				h9.1v55.4c0,4.3,0.4,8,1.3,11.1c0.8,3.1,2,5.7,3.4,7.8c1.4,2.1,3,3.8,4.7,5c1.7,1.2,3.5,2.2,5.2,2.9c1.7,0.7,3.4,1.1,5,1.3
				c1.6,0.2,3,0.3,4.2,0.3c1.1,0,2.5-0.1,4.1-0.3c1.7-0.2,3.3-0.7,5.1-1.3c1.7-0.7,3.5-1.6,5.2-2.9c1.7-1.2,3.3-2.9,4.7-5
				c1.4-2.1,2.5-4.7,3.4-7.8c0.8-3.1,1.3-6.8,1.3-11.1v-55.4h9.1V1725.2z"/>
			<path class="st2" d="M1477.6,1758.7h-9.1v-90h27.7c9.1,0,16.4,2,21.7,6c5.3,4,7.9,10,7.9,18c0,6.3-2,11.5-5.9,15.8
				c-3.9,4.3-9.6,6.8-17.1,7.4l25.9,42.7h-11.2l-24.6-41.8h-15.2V1758.7z M1477.6,1708.6h16.3c4.1,0,7.5-0.4,10.4-1.3s5.1-2,6.8-3.4
				c1.7-1.4,2.9-3,3.7-5c0.8-1.9,1.1-4,1.1-6.2c0-2.1-0.4-4.1-1.1-6c-0.8-1.9-2-3.6-3.7-5c-1.7-1.4-4-2.6-6.8-3.4s-6.3-1.2-10.4-1.2
				h-16.3V1708.6z"/>
			<path class="st2" d="M1553,1758.7h-9.1v-90h9.1V1758.7z"/>
			<path class="st2" d="M1619.9,1683.7c-4-5.8-9.8-8.8-17.4-8.8c-2.4,0-4.7,0.3-7,1c-2.3,0.6-4.3,1.6-6.2,2.9
				c-1.8,1.3-3.3,3-4.4,5.1c-1.1,2.1-1.7,4.5-1.7,7.3c0,4.1,1.1,7.2,3.4,9.5c2.3,2.2,5.1,4.1,8.5,5.5c3.4,1.4,7.1,2.7,11.1,3.9
				c4,1.1,7.7,2.7,11.1,4.6c3.4,1.9,6.2,4.4,8.5,7.6c2.3,3.1,3.4,7.4,3.4,12.8c0,4.1-0.9,7.7-2.6,11c-1.7,3.3-4,6-6.9,8.2
				s-6,3.9-9.5,5.1c-3.5,1.2-7.1,1.8-10.6,1.8c-5.5,0-10.7-1-15.7-3.1c-5-2.1-9.2-5.5-12.6-10.2l8.4-6c1.9,3.3,4.6,6,8.1,7.9
				c3.5,2,7.6,3,12.3,3c2.3,0,4.6-0.4,6.8-1.1c2.3-0.7,4.3-1.8,6.1-3.2c1.8-1.4,3.3-3.1,4.5-5.1c1.2-2,1.8-4.4,1.8-7
				c0-3.1-0.7-5.7-2-7.8c-1.3-2.1-3-3.8-5.2-5.2c-2.2-1.4-4.6-2.6-7.4-3.5c-2.8-0.9-5.6-1.9-8.5-2.8c-2.9-0.9-5.8-2-8.5-3.2
				c-2.8-1.2-5.2-2.7-7.4-4.5c-2.2-1.8-3.9-4.1-5.2-6.9c-1.3-2.7-2-6.2-2-10.4c0-4.3,0.8-8.1,2.5-11.3c1.7-3.2,3.9-5.9,6.6-8
				c2.8-2.1,5.9-3.7,9.3-4.7c3.5-1,7-1.5,10.7-1.5c5.1,0,9.7,0.8,13.9,2.4c4.1,1.6,8,4.4,11.6,8.5L1619.9,1683.7z"/>
			<path class="st2" d="M1676.8,1758.7h-9.1v-81.6h-30.1v-8.4h69.4v8.4h-30.1V1758.7z"/>
			<path class="st2" d="M1730.1,1750.4h48.2v8.4h-57.3v-90h55.8v8.4h-46.6v30.6h43.6v8.4h-43.6V1750.4z"/>
		</g>
	</g>
</g>
</svg>
